<?xml version="1.0" encoding="iso-8859-1"?>
<!-- Generator: Adobe Illustrator 19.0.0, SVG Export Plug-In . SVG Version: 6.00 Build 0)  -->
<svg version="1.1" id="Capa_1" xmlns="http://www.w3.org/2000/svg" xmlns:xlink="http://www.w3.org/1999/xlink" x="0px" y="0px"
	 viewBox="0 0 81.146 81.146" style="enable-background:new 0 0 81.146 81.146;" xml:space="preserve">
<g fill="#000000">
	<path d="M11.902,67.18l0.021-14.51L0,52.559V8.524h64.319v44.053h-31.25L11.902,67.18z M4,48.596l11.928,0.111l-0.016,10.846
		l15.911-10.976h28.496V12.524H4V48.596z"/>
	<path d="M81.146,26.524H64.319v-18H0v44.035l11.922,0.111l-0.021,14.51L31.16,53.895v7.167h24.152l16.763,11.561l-0.018-11.495
		l9.089-0.084V26.524z M4,48.596V12.524h56.319v36.053H31.823L15.912,59.553l0.016-10.846L4,48.596z M77.146,57.08l-9.095,0.084
		l0.012,7.833l-11.505-7.936H35.16v-4.484h29.159V30.524h12.827C77.146,30.524,77.146,57.08,77.146,57.08z"/>
</g>
<g fill="#000000">
</g>
<g fill="#000000">
</g>
<g fill="#000000">
</g>
<g fill="#000000">
</g>
<g fill="#000000">
</g>
<g fill="#000000">
</g>
<g fill="#000000">
</g>
<g fill="#000000">
</g>
<g fill="#000000">
</g>
<g fill="#000000">
</g>
<g fill="#000000">
</g>
<g fill="#000000">
</g>
<g fill="#000000">
</g>
<g fill="#000000">
</g>
<g fill="#000000">
</g>
</svg>
